^D:\DEVELOPMENT FOLDER\KAREKARE\CONTENT\ACCESSDENIED.ASPX.RESX|D:\DEVELOPMENT FOLDER\KAREKARE\CONTENT\AGENTLOGIN.ASPX.RESX|D:\DEVELOPMENT FOLDER\KAREKARE\CONTENT\BOOKINGNOTE.ASPX.RESX|D:\DEVELOPMENT FOLDER\KAREKARE\CONTENT\CUSTOMERLOGIN.ASPX.RESX|D:\DEVELOPMENT FOLDER\KAREKARE\CONTENT\EDITMYDETAILS.ASPX.RESX|D:\DEVELOPMENT FOLDER\KAREKARE\CONTENT\ERRORLOG.ASPX.RESX|D:\DEVELOPMENT FOLDER\KAREKARE\CONTENT\MAINTAINAGENTUSERS.ASPX.RESX|D:\DEVELOPMENT FOLDER\KAREKARE\CONTENT\OTACREATEBOOKING.ASPX.RESX|D:\DEVELOPMENT FOLDER\KAREKARE\CONTENT\PRE-REGISTRATION.ASPX.RESX|D:\DEVELOPMENT FOLDER\KAREKARE\CONTENT\PRICEANDAVAILABILITY.ASPX.RESX|D:\DEVELOPMENT FOLDER\KAREKARE\CONTENT\PRINTERFRIENDLYPAGE.ASPX.RESX|D:\DEVELOPMENT FOLDER\KAREKARE\CONTENT\QUOTESANDBOOKINGS.ASPX.RESX|D:\DEVELOPMENT FOLDER\KAREKARE\CONTENT\THL_PAGEBASE.ASPX.RESX|D:\DEVELOPMENT FOLDER\KAREKARE\CONTENT\THL_WEBUSERCONTROLBASE.ASCX.RESX|D:\DEVELOPMENT FOLDER\KAREKARE\CONTENT\WEBFORM2.ASPX.RESX|D:\DEVELOPMENT FOLDER\KAREKARE\CONTROLS\BOOKING\BOOKINGCONTAINER.ASCX.RESX|D:\DEVELOPMENT FOLDER\KAREKARE\CONTROLS\BOOKING\BOOKINGLIST.ASCX.RESX|D:\DEVELOPMENT FOLDER\KAREKARE\CONTROLS\BOOKING\BOOKINGSUMMARY.ASCX.RESX|D:\DEVELOPMENT FOLDER\KAREKARE\CONTROLS\BOOKING\CANCELBOOKING.ASCX.RESX|D:\DEVELOPMENT FOLDER\KAREKARE\CONTROLS\BOOKING\MAKEBOOKING.ASCX.RESX|D:\DEVELOPMENT FOLDER\KAREKARE\CONTROLS\BOOKING\MODIFYBOOKING.ASCX.RESX|D:\DEVELOPMENT FOLDER\KAREKARE\CONTROLS\BOOKING\STANDARDCONFIRMATION.ASCX.RESX|D:\DEVELOPMENT FOLDER\KAREKARE\CONTROLS\COMPANYADDRESS\COMPANYADDRESS.ASCX.RESX|D:\DEVELOPMENT FOLDER\KAREKARE\CONTROLS\DEPOSIT\DEPOSIT.ASCX.RESX|D:\DEVELOPMENT FOLDER\KAREKARE\CONTROLS\FEESANDCHARGES\FEESANDCHARGES.ASCX.RESX|D:\DEVELOPMENT FOLDER\KAREKARE\CONTROLS\FEESANDCHARGES\FEESANDCHARGESNEWBOOKING.ASCX.RESX|D:\DEVELOPMENT FOLDER\KAREKARE\CONTROLS\GENERAL\HEADER.ASCX.RESX|D:\DEVELOPMENT FOLDER\KAREKARE\CONTROLS\GRAPHICS\FOOTERIMAGE.ASCX.RESX|D:\DEVELOPMENT FOLDER\KAREKARE\CONTROLS\GRAPHICS\RIGHTIMAGE.ASCX.RESX|D:\DEVELOPMENT FOLDER\KAREKARE\CONTROLS\PRE-REGISTER\PREREGISTER.ASCX.RESX|D:\DEVELOPMENT FOLDER\KAREKARE\CONTROLS\PRICEANDAVAILABILITY\AVAILABILITY.ASCX.RESX|D:\DEVELOPMENT FOLDER\KAREKARE\CONTROLS\PRICEANDAVAILABILITY\LOCATIONANDTIME.ASCX.RESX|D:\DEVELOPMENT FOLDER\KAREKARE\CONTROLS\SIGNIN\REGISTER.ASCX.RESX|D:\DEVELOPMENT FOLDER\KAREKARE\CONTROLS\SIGNIN\SIGNIN.ASCX.RESX|D:\DEVELOPMENT FOLDER\KAREKARE\CONTROLS\SIGNIN\WEBSERVICEDOWN.ASCX.RESX|D:\DEVELOPMENT FOLDER\KAREKARE\CONTROLS\USERDETAILS\USERDETAILS.ASCX.RESX|D:\DEVELOPMENT FOLDER\KAREKARE\ERROR.ASPX.RESX|D:\DEVELOPMENT FOLDER\KAREKARE\GLOBAL.ASAX.RESX|D:\DEVELOPMENT FOLDER\KAREKARE\WEBSERVICETEST.ASPX.RESX
D:\DEVELOPMENT FOLDER\KAREKARE\OBJ\DEBUG\THLAURORAWEBINTERFACE.ACCESSDENIED.RESOURCES
D:\DEVELOPMENT FOLDER\KAREKARE\OBJ\DEBUG\THLAURORAWEBINTERFACE.LOGIN.RESOURCES
D:\DEVELOPMENT FOLDER\KAREKARE\OBJ\DEBUG\THLAURORAWEBINTERFACE.BOOKINGNOTE.RESOURCES
D:\DEVELOPMENT FOLDER\KAREKARE\OBJ\DEBUG\THLAURORAWEBINTERFACE.CUSTOMERLOGIN.RESOURCES
D:\DEVELOPMENT FOLDER\KAREKARE\OBJ\DEBUG\THLAURORAWEBINTERFACE.EDITMYDETAILS.RESOURCES
D:\DEVELOPMENT FOLDER\KAREKARE\OBJ\DEBUG\THLAURORAWEBINTERFACE.ERRORLOG.RESOURCES
D:\DEVELOPMENT FOLDER\KAREKARE\OBJ\DEBUG\THLAURORAWEBINTERFACE.MAINTAINAGENTUSERS.RESOURCES
D:\DEVELOPMENT FOLDER\KAREKARE\OBJ\DEBUG\THLAURORAWEBINTERFACE.OTACREATEBOOKING.RESOURCES
D:\DEVELOPMENT FOLDER\KAREKARE\OBJ\DEBUG\THLAURORAWEBINTERFACE.PRE_.RESOURCES
D:\DEVELOPMENT FOLDER\KAREKARE\OBJ\DEBUG\THLAURORAWEBINTERFACE.PRICEANDAVAILABILITY.RESOURCES
D:\DEVELOPMENT FOLDER\KAREKARE\OBJ\DEBUG\THLAURORAWEBINTERFACE.PRINTERFRIENDLYPAGEASPX.RESOURCES
D:\DEVELOPMENT FOLDER\KAREKARE\OBJ\DEBUG\THLAURORAWEBINTERFACE.QUOTESANDBOOKINGS.RESOURCES
D:\DEVELOPMENT FOLDER\KAREKARE\OBJ\DEBUG\THLAURORAWEBINTERFACE.THL_PAGEBASE.RESOURCES
D:\DEVELOPMENT FOLDER\KAREKARE\OBJ\DEBUG\THLAURORAWEBINTERFACE.THL_WEBUSERCONTROLBASE.RESOURCES
D:\DEVELOPMENT FOLDER\KAREKARE\OBJ\DEBUG\THLAURORAWEBINTERFACE.WEBFORM2.RESOURCES
D:\DEVELOPMENT FOLDER\KAREKARE\OBJ\DEBUG\THLAURORAWEBINTERFACE.BOOKINGCONTAINER.RESOURCES
D:\DEVELOPMENT FOLDER\KAREKARE\OBJ\DEBUG\THLAURORAWEBINTERFACE.BOOKINGLIST.RESOURCES
D:\DEVELOPMENT FOLDER\KAREKARE\OBJ\DEBUG\THLAURORAWEBINTERFACE.BOOKINGSUMMARY.RESOURCES
D:\DEVELOPMENT FOLDER\KAREKARE\OBJ\DEBUG\THLAURORAWEBINTERFACE.CANCELBOOKING.RESOURCES
D:\DEVELOPMENT FOLDER\KAREKARE\OBJ\DEBUG\THLAURORAWEBINTERFACE.MAKEBOOKING.RESOURCES
D:\DEVELOPMENT FOLDER\KAREKARE\OBJ\DEBUG\THLAURORAWEBINTERFACE.MODIFYBOOKING.RESOURCES
D:\DEVELOPMENT FOLDER\KAREKARE\OBJ\DEBUG\THLAURORAWEBINTERFACE.STANDARDCONFIRMATION.RESOURCES
D:\DEVELOPMENT FOLDER\KAREKARE\OBJ\DEBUG\THLAURORAWEBINTERFACE.COMPANYADDRESS.RESOURCES
D:\DEVELOPMENT FOLDER\KAREKARE\OBJ\DEBUG\THLAURORAWEBINTERFACE.DEPOSIT.RESOURCES
D:\DEVELOPMENT FOLDER\KAREKARE\OBJ\DEBUG\THLAURORAWEBINTERFACE.FEESANDCHARGES.RESOURCES
D:\DEVELOPMENT FOLDER\KAREKARE\OBJ\DEBUG\THLAURORAWEBINTERFACE.FEESANDCHARGESNEWBOOKING.RESOURCES
D:\DEVELOPMENT FOLDER\KAREKARE\OBJ\DEBUG\THLAURORAWEBINTERFACE.HEADER.RESOURCES
D:\DEVELOPMENT FOLDER\KAREKARE\OBJ\DEBUG\THLAURORAWEBINTERFACE.FOOTERIMAGE.RESOURCES
D:\DEVELOPMENT FOLDER\KAREKARE\OBJ\DEBUG\THLAURORAWEBINTERFACE.RIGHTIMAGE.RESOURCES
D:\DEVELOPMENT FOLDER\KAREKARE\OBJ\DEBUG\THLAURORAWEBINTERFACE.PREREGISTER.RESOURCES
D:\DEVELOPMENT FOLDER\KAREKARE\OBJ\DEBUG\THLAURORAWEBINTERFACE.AVAILABILITY.RESOURCES
D:\DEVELOPMENT FOLDER\KAREKARE\OBJ\DEBUG\THLAURORAWEBINTERFACE.LOCATIONANDTIME.RESOURCES
D:\DEVELOPMENT FOLDER\KAREKARE\OBJ\DEBUG\THLAURORAWEBINTERFACE.REGISTER.RESOURCES
D:\DEVELOPMENT FOLDER\KAREKARE\OBJ\DEBUG\THLAURORAWEBINTERFACE.SIGNIN.RESOURCES
D:\DEVELOPMENT FOLDER\KAREKARE\OBJ\DEBUG\THLAURORAWEBINTERFACE.WEBSERVICEDOWN.RESOURCES
D:\DEVELOPMENT FOLDER\KAREKARE\OBJ\DEBUG\THLAURORAWEBINTERFACE.USERDETAILS.RESOURCES
D:\DEVELOPMENT FOLDER\KAREKARE\OBJ\DEBUG\THLAURORAWEBINTERFACE._ERROR.RESOURCES
D:\DEVELOPMENT FOLDER\KAREKARE\OBJ\DEBUG\THLAURORAWEBINTERFACE.GLOBAL.RESOURCES
D:\DEVELOPMENT FOLDER\KAREKARE\OBJ\DEBUG\THLAURORAWEBINTERFACE.WEBFORM1.RESOURCES
